<?xml version="1.0" encoding="UTF-8" standalone="no"?>
<!-- Created with Inkscape (http://www.inkscape.org/) -->

<svg
   version="1.1"
   id="svg2"
   xml:space="preserve"
   width="325.36493"
   height="99.006844"
   viewBox="0 0 325.36493 99.006843"
   xmlns="http://www.w3.org/2000/svg"
   xmlns:svg="http://www.w3.org/2000/svg"><defs
     id="defs6"><clipPath
       clipPathUnits="userSpaceOnUse"
       id="clipPath24"><path
         d="m 1163.27,3792.58 -5.87,-1.01 c 0.81,-105.54 -72.56,-167.15 -176.502,-139.8 115.982,-30.6 314.902,-32.63 442.072,-5.09 -114.29,-24.76 -223.81,39.22 -259.7,145.9 z"
         id="path22" /></clipPath><radialGradient
       fx="0"
       fy="0"
       cx="0"
       cy="0"
       r="1"
       gradientUnits="userSpaceOnUse"
       gradientTransform="matrix(819.269,-2725.94,-2725.94,-819.269,517.29,4281.14)"
       spreadMethod="pad"
       id="radialGradient32"><stop
         style="stop-opacity:1;stop-color:#f3f4f7"
         offset="0"
         id="stop26" /><stop
         style="stop-opacity:1;stop-color:#f3f4f7"
         offset="0.16174893"
         id="stop28" /><stop
         style="stop-opacity:1;stop-color:#abb6c6"
         offset="1"
         id="stop30" /></radialGradient><clipPath
       clipPathUnits="userSpaceOnUse"
       id="clipPath50"><path
         d="m 1931.53,4973.85 c 30.15,-26.4 -0.68,-55.61 -90.2,-75.15 127.17,27.41 248.17,-54.92 268.85,-183.02 -16.56,101.86 -90.65,204.8 -178.65,258.17 z"
         id="path48" /></clipPath><radialGradient
       fx="0"
       fy="0"
       cx="0"
       cy="0"
       r="1"
       gradientUnits="userSpaceOnUse"
       gradientTransform="matrix(819.055,-2725.23,-2725.23,-819.055,517.388,4281.06)"
       spreadMethod="pad"
       id="radialGradient58"><stop
         style="stop-opacity:1;stop-color:#f3f4f7"
         offset="0"
         id="stop52" /><stop
         style="stop-opacity:1;stop-color:#f3f4f7"
         offset="0.16174893"
         id="stop54" /><stop
         style="stop-opacity:1;stop-color:#abb6c6"
         offset="1"
         id="stop56" /></radialGradient><clipPath
       clipPathUnits="userSpaceOnUse"
       id="clipPath74"><path
         d="m 1370.46,4851.75 c -57.3,-13.71 -124.07,-7.01 -149.1,15.26 -24.92,22.07 1.61,51.1 59.09,64.81 57.4,13.76 124.29,6.86 149.15,-15.22 24.99,-22.03 -1.67,-51.1 -59.14,-64.85 z"
         id="path72" /></clipPath><radialGradient
       fx="0"
       fy="0"
       cx="0"
       cy="0"
       r="1"
       gradientUnits="userSpaceOnUse"
       gradientTransform="matrix(1.49415,-84.2603,-167.662,-2.99246,1268.86,4831.48)"
       spreadMethod="pad"
       id="radialGradient80"><stop
         style="stop-opacity:1;stop-color:#5a5d62"
         offset="0"
         id="stop76" /><stop
         style="stop-opacity:1;stop-color:#211c1c"
         offset="1"
         id="stop78" /></radialGradient><clipPath
       clipPathUnits="userSpaceOnUse"
       id="clipPath90"><path
         d="m 883.645,4061.14 c 26.707,-65.36 21.023,-144.14 -12.54,-176.2 -33.632,-31.8 -82.675,-4.61 -109.281,60.62 -26.719,65.46 -21.023,144.34 12.649,176.07 33.507,31.97 82.5,4.99 109.172,-60.49 z"
         id="path88" /></clipPath><radialGradient
       fx="0"
       fy="0"
       cx="0"
       cy="0"
       r="1"
       gradientUnits="userSpaceOnUse"
       gradientTransform="matrix(135.6,12.5747,18.1184,-195.436,924.429,3944.97)"
       spreadMethod="pad"
       id="radialGradient96"><stop
         style="stop-opacity:1;stop-color:#5a5d62"
         offset="0"
         id="stop92" /><stop
         style="stop-opacity:1;stop-color:#211c1c"
         offset="1"
         id="stop94" /></radialGradient><clipPath
       clipPathUnits="userSpaceOnUse"
       id="clipPath106"><path
         d="m 827.629,4472.96 c 26.734,-65.18 20.976,-144.12 -12.59,-175.96 -33.723,-32.23 -82.5,-5.01 -109.226,60.34 -26.653,65.61 -20.977,144.29 12.671,176.34 33.567,32.03 82.356,4.86 109.145,-60.72 z"
         id="path104" /></clipPath><radialGradient
       fx="0"
       fy="0"
       cx="0"
       cy="0"
       r="1"
       gradientUnits="userSpaceOnUse"
       gradientTransform="matrix(135.673,12.5815,18.1281,-195.541,868.433,4356.84)"
       spreadMethod="pad"
       id="radialGradient112"><stop
         style="stop-opacity:1;stop-color:#5a5d62"
         offset="0"
         id="stop108" /><stop
         style="stop-opacity:1;stop-color:#211c1c"
         offset="1"
         id="stop110" /></radialGradient><clipPath
       clipPathUnits="userSpaceOnUse"
       id="clipPath122"><path
         d="m 1079.68,4021.63 c 26.6,-65.33 21.19,-144.29 -12.61,-176.25 -33.52,-31.91 -82.312,-4.69 -109.05,60.71 -26.641,65.35 -21.028,144.06 12.488,176.09 33.742,31.91 82.552,4.74 109.172,-60.55 z"
         id="path120" /></clipPath><radialGradient
       fx="0"
       fy="0"
       cx="0"
       cy="0"
       r="1"
       gradientUnits="userSpaceOnUse"
       gradientTransform="matrix(135.601,12.5748,18.1185,-195.437,1120.46,3905.34)"
       spreadMethod="pad"
       id="radialGradient128"><stop
         style="stop-opacity:1;stop-color:#5a5d62"
         offset="0"
         id="stop124" /><stop
         style="stop-opacity:1;stop-color:#211c1c"
         offset="1"
         id="stop126" /></radialGradient><clipPath
       clipPathUnits="userSpaceOnUse"
       id="clipPath138"><path
         d="m 1003.29,4462.44 c 26.65,-65.4 20.87,-144.07 -12.599,-176.14 -33.671,-31.86 -82.5,-4.86 -109.253,60.62 -26.602,65.45 -20.969,144.34 12.644,176.07 33.633,31.97 82.512,5.12 109.208,-60.55 z"
         id="path136" /></clipPath><radialGradient
       fx="0"
       fy="0"
       cx="0"
       cy="0"
       r="1"
       gradientUnits="userSpaceOnUse"
       gradientTransform="matrix(135.596,12.5743,18.1178,-195.43,1044.03,4346.26)"
       spreadMethod="pad"
       id="radialGradient144"><stop
         style="stop-opacity:1;stop-color:#5a5d62"
         offset="0"
         id="stop140" /><stop
         style="stop-opacity:1;stop-color:#211c1c"
         offset="1"
         id="stop142" /></radialGradient><clipPath
       clipPathUnits="userSpaceOnUse"
       id="clipPath154"><path
         d="m 1468.96,4458.34 c 8.92,-73.18 -31.44,-142.63 -89.68,-155.13 -58.77,-12.2 -113.36,37.03 -122.28,110.29 -8.89,73.4 31.34,142.73 89.86,155 58.47,12.43 113.13,-36.9 122.1,-110.16 z"
         id="path152" /></clipPath><radialGradient
       fx="0"
       fy="0"
       cx="0"
       cy="0"
       r="1"
       gradientUnits="userSpaceOnUse"
       gradientTransform="matrix(274.505,-82.4217,-82.4217,-274.505,1542.5,4306.18)"
       spreadMethod="pad"
       id="radialGradient160"><stop
         style="stop-opacity:1;stop-color:#5a5d62"
         offset="0"
         id="stop156" /><stop
         style="stop-opacity:1;stop-color:#211c1c"
         offset="1"
         id="stop158" /></radialGradient><clipPath
       clipPathUnits="userSpaceOnUse"
       id="clipPath170"><path
         d="m 1788.92,4307.31 c 8.83,-73.29 -31.26,-142.65 -89.82,-155.22 -58.62,-12.08 -113.27,37.19 -122.2,110.4 -8.9,73.34 31.39,142.74 89.87,154.99 58.62,12.15 113.29,-37.12 122.15,-110.17 z"
         id="path168" /></clipPath><radialGradient
       fx="0"
       fy="0"
       cx="0"
       cy="0"
       r="1"
       gradientUnits="userSpaceOnUse"
       gradientTransform="matrix(274.484,-82.4154,-82.4154,-274.484,1862.42,4155.03)"
       spreadMethod="pad"
       id="radialGradient176"><stop
         style="stop-opacity:1;stop-color:#5a5d62"
         offset="0"
         id="stop172" /><stop
         style="stop-opacity:1;stop-color:#211c1c"
         offset="1"
         id="stop174" /></radialGradient><clipPath
       clipPathUnits="userSpaceOnUse"
       id="clipPath186"><path
         d="m 2020.24,4594.04 c 8.97,-73.34 -31.22,-142.79 -89.8,-155.07 -58.56,-12.17 -113.15,37.05 -122.02,110.2 -8.85,73.31 31.46,142.42 89.84,155.09 58.48,12.3 113.24,-37.02 121.98,-110.22 z"
         id="path184" /></clipPath><radialGradient
       fx="0"
       fy="0"
       cx="0"
       cy="0"
       r="1"
       gradientUnits="userSpaceOnUse"
       gradientTransform="matrix(393.161,-118.049,-118.049,-393.161,1853.74,4741.79)"
       spreadMethod="pad"
       id="radialGradient194"><stop
         style="stop-opacity:1;stop-color:#211c1c"
         offset="0"
         id="stop188" /><stop
         style="stop-opacity:1;stop-color:#211c1c"
         offset="0.292135"
         id="stop190" /><stop
         style="stop-opacity:1;stop-color:#5a5d62"
         offset="1"
         id="stop192" /></radialGradient><clipPath
       clipPathUnits="userSpaceOnUse"
       id="clipPath204"><path
         d="m 1548.45,4016.8 c 8.9,-73.45 -31.32,-142.73 -89.84,-154.95 -58.55,-12.42 -113.31,36.97 -122.05,110 -9.02,73.4 31.33,142.74 89.8,155.1 58.4,12.22 113.11,-37.04 122.09,-110.15 z"
         id="path202" /></clipPath><radialGradient
       fx="0"
       fy="0"
       cx="0"
       cy="0"
       r="1"
       gradientUnits="userSpaceOnUse"
       gradientTransform="matrix(187.931,-56.4275,-56.4275,-187.931,1555.37,3889.94)"
       spreadMethod="pad"
       id="radialGradient210"><stop
         style="stop-opacity:1;stop-color:#5a5d62"
         offset="0"
         id="stop206" /><stop
         style="stop-opacity:1;stop-color:#211c1c"
         offset="1"
         id="stop208" /></radialGradient><clipPath
       clipPathUnits="userSpaceOnUse"
       id="clipPath220"><path
         d="m 2084.44,4130.29 c 8.85,-73.32 -31.26,-142.85 -89.8,-155.1 -58.6,-12.44 -113.18,36.94 -122.05,109.99 -8.88,72.99 31.32,142.58 89.79,155.06 58.54,12.3 113.2,-36.97 122.06,-109.95 z"
         id="path218" /></clipPath><radialGradient
       fx="0"
       fy="0"
       cx="0"
       cy="0"
       r="1"
       gradientUnits="userSpaceOnUse"
       gradientTransform="matrix(392.996,-117.999,-117.999,-392.996,1917.86,4277.72)"
       spreadMethod="pad"
       id="radialGradient228"><stop
         style="stop-opacity:1;stop-color:#211c1c"
         offset="0"
         id="stop222" /><stop
         style="stop-opacity:1;stop-color:#211c1c"
         offset="0.292135"
         id="stop224" /><stop
         style="stop-opacity:1;stop-color:#5a5d62"
         offset="1"
         id="stop226" /></radialGradient><clipPath
       clipPathUnits="userSpaceOnUse"
       id="clipPath238"><path
         d="m 3230.06,3562.12 c -110.78,71.19 -251.71,215.77 -312.98,320.9 61.27,-105.13 48.18,-278.56 -29.02,-385.52 77.2,106.96 231.22,135.81 342,64.62 z"
         id="path236" /></clipPath><radialGradient
       fx="0"
       fy="0"
       cx="0"
       cy="0"
       r="1"
       gradientUnits="userSpaceOnUse"
       gradientTransform="matrix(1302.88,-2426.72,-2426.72,-1302.88,3848.62,2433.62)"
       spreadMethod="pad"
       id="radialGradient246"><stop
         style="stop-opacity:1;stop-color:#f3f4f7"
         offset="0"
         id="stop240" /><stop
         style="stop-opacity:1;stop-color:#f3f4f7"
         offset="0.16174893"
         id="stop242" /><stop
         style="stop-opacity:1;stop-color:#abb6c6"
         offset="1"
         id="stop244" /></radialGradient><clipPath
       clipPathUnits="userSpaceOnUse"
       id="clipPath256"><path
         d="m 2917.08,3883.02 c -32.65,55.92 -36.34,89.92 -15.89,98.55 -62.17,6.77 -126.32,-8.96 -177.99,-45.19 68.62,45.1 146.74,27.46 193.88,-53.36 z"
         id="path254" /></clipPath><radialGradient
       fx="0"
       fy="0"
       cx="0"
       cy="0"
       r="1"
       gradientUnits="userSpaceOnUse"
       gradientTransform="matrix(1300.39,-2422.07,-2422.07,-1300.39,3846.92,2436.48)"
       spreadMethod="pad"
       id="radialGradient264"><stop
         style="stop-opacity:1;stop-color:#f3f4f7"
         offset="0"
         id="stop258" /><stop
         style="stop-opacity:1;stop-color:#f3f4f7"
         offset="0.16174893"
         id="stop260" /><stop
         style="stop-opacity:1;stop-color:#abb6c6"
         offset="1"
         id="stop262" /></radialGradient><clipPath
       clipPathUnits="userSpaceOnUse"
       id="clipPath276"><path
         d="m 2474.41,2919.91 -5.14,3.35 c -75.09,-76.09 -171.83,-67.52 -226.51,26.55 61.12,-105.03 201.88,-249.56 312.95,-320.77 -99.83,64.15 -132.07,188.62 -81.3,290.87 z"
         id="path274" /></clipPath><radialGradient
       fx="0"
       fy="0"
       cx="0"
       cy="0"
       r="1"
       gradientUnits="userSpaceOnUse"
       gradientTransform="matrix(1301.81,-2424.72,-2424.72,-1301.81,3847.75,2433.54)"
       spreadMethod="pad"
       id="radialGradient284"><stop
         style="stop-opacity:1;stop-color:#f3f4f7"
         offset="0"
         id="stop278" /><stop
         style="stop-opacity:1;stop-color:#f3f4f7"
         offset="0.16174893"
         id="stop280" /><stop
         style="stop-opacity:1;stop-color:#abb6c6"
         offset="1"
         id="stop282" /></radialGradient><clipPath
       clipPathUnits="userSpaceOnUse"
       id="clipPath302"><path
         d="m 3871.96,3214.4 c 2.73,-40.56 -40.5,-39.45 -118.54,10.94 110.88,-71.5 138.3,-217.24 61.15,-324.12 61.31,84.98 82.25,211.82 57.39,313.18 z"
         id="path300" /></clipPath><radialGradient
       fx="0"
       fy="0"
       cx="0"
       cy="0"
       r="1"
       gradientUnits="userSpaceOnUse"
       gradientTransform="matrix(1302.6,-2426.2,-2426.2,-1302.6,3848.44,2433.9)"
       spreadMethod="pad"
       id="radialGradient310"><stop
         style="stop-opacity:1;stop-color:#f3f4f7"
         offset="0"
         id="stop304" /><stop
         style="stop-opacity:1;stop-color:#f3f4f7"
         offset="0.16174893"
         id="stop306" /><stop
         style="stop-opacity:1;stop-color:#abb6c6"
         offset="1"
         id="stop308" /></radialGradient><clipPath
       clipPathUnits="userSpaceOnUse"
       id="clipPath326"><path
         d="m 3101.88,3737.45 c -50.86,31.42 -93.98,84.21 -95.9,117.86 -2.02,33.79 37.69,35.67 88.75,4.21 51.04,-31.44 94.05,-84.27 95.93,-118.05 2,-33.66 -37.8,-35.24 -88.78,-4.02 z"
         id="path324" /></clipPath><radialGradient
       fx="0"
       fy="0"
       cx="0"
       cy="0"
       r="1"
       gradientUnits="userSpaceOnUse"
       gradientTransform="matrix(-59.4051,-61.4437,-122.254,118.205,3014.43,3795.98)"
       spreadMethod="pad"
       id="radialGradient332"><stop
         style="stop-opacity:1;stop-color:#5a5d62"
         offset="0"
         id="stop328" /><stop
         style="stop-opacity:1;stop-color:#211c1c"
         offset="1"
         id="stop330" /></radialGradient><clipPath
       clipPathUnits="userSpaceOnUse"
       id="clipPath342"><path
         d="m 3382.68,3529.49 c -50.8,31.22 -93.94,84.15 -95.93,117.88 -1.99,33.66 37.97,35.5 88.89,4.09 50.99,-31.33 94.01,-84.27 96.04,-117.85 1.92,-33.75 -37.9,-35.55 -89,-4.12 z"
         id="path340" /></clipPath><radialGradient
       fx="0"
       fy="0"
       cx="0"
       cy="0"
       r="1"
       gradientUnits="userSpaceOnUse"
       gradientTransform="matrix(-59.4023,-61.4408,-122.248,118.199,3295.21,3587.93)"
       spreadMethod="pad"
       id="radialGradient348"><stop
         style="stop-opacity:1;stop-color:#5a5d62"
         offset="0"
         id="stop344" /><stop
         style="stop-opacity:1;stop-color:#211c1c"
         offset="1"
         id="stop346" /></radialGradient><clipPath
       clipPathUnits="userSpaceOnUse"
       id="clipPath358"><path
         d="m 3676.95,3310.17 c -51.08,31.51 -93.93,84.14 -95.98,117.91 -2.12,33.72 37.83,35.58 88.76,4.04 51.07,-31.47 94.13,-84.2 96.04,-117.84 1.97,-33.61 -37.75,-35.69 -88.82,-4.11 z"
         id="path356" /></clipPath><radialGradient
       fx="0"
       fy="0"
       cx="0"
       cy="0"
       r="1"
       gradientUnits="userSpaceOnUse"
       gradientTransform="matrix(-59.4006,-61.4391,-122.244,118.196,3589.42,3368.69)"
       spreadMethod="pad"
       id="radialGradient364"><stop
         style="stop-opacity:1;stop-color:#5a5d62"
         offset="0"
         id="stop360" /><stop
         style="stop-opacity:1;stop-color:#211c1c"
         offset="1"
         id="stop362" /></radialGradient><clipPath
       clipPathUnits="userSpaceOnUse"
       id="clipPath374"><path
         d="m 2779.43,3651.53 c -30.65,-74.49 -97.87,-133.87 -150.55,-132.78 -52.14,1.22 -69.68,62.2 -39.03,136.33 30.67,74.49 97.96,133.95 150.48,132.5 52.36,-0.96 69.92,-61.95 39.1,-136.05 z"
         id="path372" /></clipPath><radialGradient
       fx="0"
       fy="0"
       cx="0"
       cy="0"
       r="1"
       gradientUnits="userSpaceOnUse"
       gradientTransform="matrix(118.708,-98.314,-141.251,-172.621,2719.57,3524.68)"
       spreadMethod="pad"
       id="radialGradient380"><stop
         style="stop-opacity:1;stop-color:#5a5d62"
         offset="0"
         id="stop376" /><stop
         style="stop-opacity:1;stop-color:#211c1c"
         offset="1"
         id="stop378" /></radialGradient><clipPath
       clipPathUnits="userSpaceOnUse"
       id="clipPath390"><path
         d="m 2548.61,3173.93 c -30.86,-74.27 -98.18,-133.71 -150.71,-132.61 -52.32,1.19 -69.95,62.23 -39.01,136.38 30.42,74.54 98.03,133.68 150.36,132.46 52.28,-0.87 69.99,-61.9 39.36,-136.23 z"
         id="path388" /></clipPath><radialGradient
       fx="0"
       fy="0"
       cx="0"
       cy="0"
       r="1"
       gradientUnits="userSpaceOnUse"
       gradientTransform="matrix(118.748,-98.3473,-141.299,-172.68,2488.58,3047.13)"
       spreadMethod="pad"
       id="radialGradient396"><stop
         style="stop-opacity:1;stop-color:#5a5d62"
         offset="0"
         id="stop392" /><stop
         style="stop-opacity:1;stop-color:#211c1c"
         offset="1"
         id="stop394" /></radialGradient><clipPath
       clipPathUnits="userSpaceOnUse"
       id="clipPath406"><path
         d="m 3431.51,3029.72 c -46.25,-58.8 -124.86,-79.55 -175.47,-46.41 -50.72,32.97 -54.57,107.63 -8.37,166.36 46.14,58.73 124.76,79.66 175.48,46.56 50.85,-33.15 54.59,-107.54 8.36,-166.51 z"
         id="path404" /></clipPath><radialGradient
       fx="0"
       fy="0"
       cx="0"
       cy="0"
       r="1"
       gradientUnits="userSpaceOnUse"
       gradientTransform="matrix(137.347,-255.819,-255.819,-137.347,3375.08,2868.1)"
       spreadMethod="pad"
       id="radialGradient412"><stop
         style="stop-opacity:1;stop-color:#5a5d62"
         offset="0"
         id="stop408" /><stop
         style="stop-opacity:1;stop-color:#211c1c"
         offset="1"
         id="stop410" /></radialGradient><clipPath
       clipPathUnits="userSpaceOnUse"
       id="clipPath422"><path
         d="m 3170.82,3177.25 c -46.18,-58.77 -124.7,-79.6 -175.54,-46.51 -50.6,33.08 -54.42,107.52 -8.24,166.45 46.07,58.86 124.77,79.57 175.53,46.63 50.56,-33.16 54.5,-107.76 8.25,-166.57 z"
         id="path420" /></clipPath><radialGradient
       fx="0"
       fy="0"
       cx="0"
       cy="0"
       r="1"
       gradientUnits="userSpaceOnUse"
       gradientTransform="matrix(137.359,-255.842,-255.842,-137.359,3114.33,3015.56)"
       spreadMethod="pad"
       id="radialGradient428"><stop
         style="stop-opacity:1;stop-color:#5a5d62"
         offset="0"
         id="stop424" /><stop
         style="stop-opacity:1;stop-color:#211c1c"
         offset="1"
         id="stop426" /></radialGradient><clipPath
       clipPathUnits="userSpaceOnUse"
       id="clipPath438"><path
         d="m 3663.04,2878.71 c -46.25,-58.68 -124.69,-79.61 -175.53,-46.47 -50.74,33.11 -54.42,107.51 -8.34,166.68 46.15,58.73 124.71,79.49 175.57,46.33 50.73,-33.23 54.42,-107.65 8.3,-166.54 z"
         id="path436" /></clipPath><radialGradient
       fx="0"
       fy="0"
       cx="0"
       cy="0"
       r="1"
       gradientUnits="userSpaceOnUse"
       gradientTransform="matrix(196.88,-366.704,-366.704,-196.88,3649.7,3104.2)"
       spreadMethod="pad"
       id="radialGradient446"><stop
         style="stop-opacity:1;stop-color:#211c1c"
         offset="0"
         id="stop440" /><stop
         style="stop-opacity:1;stop-color:#211c1c"
         offset="0.292135"
         id="stop442" /><stop
         style="stop-opacity:1;stop-color:#5a5d62"
         offset="1"
         id="stop444" /></radialGradient><clipPath
       clipPathUnits="userSpaceOnUse"
       id="clipPath456"><path
         d="m 2910.96,2803.94 c -46.14,-58.73 -124.88,-79.55 -175.6,-46.36 -50.72,32.95 -54.48,107.38 -8.37,166.37 46.13,58.9 124.84,79.43 175.72,46.56 50.73,-33.21 54.32,-107.72 8.25,-166.57 z"
         id="path454" /></clipPath><radialGradient
       fx="0"
       fy="0"
       cx="0"
       cy="0"
       r="1"
       gradientUnits="userSpaceOnUse"
       gradientTransform="matrix(94.1434,-175.349,-175.349,-94.1434,2824.93,2708.18)"
       spreadMethod="pad"
       id="radialGradient462"><stop
         style="stop-opacity:1;stop-color:#5a5d62"
         offset="0"
         id="stop458" /><stop
         style="stop-opacity:1;stop-color:#211c1c"
         offset="1"
         id="stop460" /></radialGradient><clipPath
       clipPathUnits="userSpaceOnUse"
       id="clipPath472"><path
         d="m 3144.66,2651.52 c -46.25,-58.81 -124.8,-79.73 -175.52,-46.62 -50.93,33.25 -54.53,107.87 -8.51,166.74 46.25,58.76 124.87,79.53 175.69,46.21 50.72,-33.1 54.41,-107.54 8.34,-166.33 z"
         id="path470" /></clipPath><radialGradient
       fx="0"
       fy="0"
       cx="0"
       cy="0"
       r="1"
       gradientUnits="userSpaceOnUse"
       gradientTransform="matrix(137.431,-255.976,-255.976,-137.431,3088.1,2489.67)"
       spreadMethod="pad"
       id="radialGradient478"><stop
         style="stop-opacity:1;stop-color:#5a5d62"
         offset="0"
         id="stop474" /><stop
         style="stop-opacity:1;stop-color:#211c1c"
         offset="1"
         id="stop476" /></radialGradient><clipPath
       clipPathUnits="userSpaceOnUse"
       id="clipPath488"><path
         d="m 3376.14,2500.44 c -46.24,-58.68 -124.76,-79.53 -175.6,-46.35 -50.72,33.03 -54.48,107.44 -8.36,166.36 46.18,58.87 124.86,79.7 175.47,46.7 50.72,-33.18 54.68,-107.82 8.49,-166.71 z"
         id="path486" /></clipPath><radialGradient
       fx="0"
       fy="0"
       cx="0"
       cy="0"
       r="1"
       gradientUnits="userSpaceOnUse"
       gradientTransform="matrix(196.819,-366.591,-366.591,-196.819,3362.74,2725.84)"
       spreadMethod="pad"
       id="radialGradient496"><stop
         style="stop-opacity:1;stop-color:#211c1c"
         offset="0"
         id="stop490" /><stop
         style="stop-opacity:1;stop-color:#211c1c"
         offset="0.292135"
         id="stop492" /><stop
         style="stop-opacity:1;stop-color:#5a5d62"
         offset="1"
         id="stop494" /></radialGradient><clipPath
       clipPathUnits="userSpaceOnUse"
       id="clipPath530"><path
         d="m 1293.93,2997.47 c -57.3,-13.71 -124.08,-7.01 -149.11,15.26 -24.92,22.07 1.62,51.11 59.1,64.81 57.4,13.76 124.28,6.86 149.15,-15.22 24.99,-22.03 -1.66,-51.1 -59.14,-64.85 z"
         id="path528" /></clipPath><linearGradient
       x1="0"
       y1="0"
       x2="1"
       y2="0"
       gradientUnits="userSpaceOnUse"
       gradientTransform="matrix(222.663,40.8654,40.8654,-222.663,1137.63,3017.08)"
       spreadMethod="pad"
       id="linearGradient536"><stop
         style="stop-opacity:1;stop-color:#ffffff"
         offset="0"
         id="stop532" /><stop
         style="stop-opacity:1;stop-color:#c9c8c7"
         offset="1"
         id="stop534" /></linearGradient><clipPath
       clipPathUnits="userSpaceOnUse"
       id="clipPath548"><path
         d="m 807.109,2206.86 c 26.719,-65.36 21.028,-144.15 -12.539,-176.2 -33.625,-31.8 -82.668,-4.61 -109.277,60.61 -26.719,65.47 -21.023,144.35 12.645,176.09 33.507,31.96 82.5,4.98 109.171,-60.5 z"
         id="path546" /></clipPath><linearGradient
       x1="0"
       y1="0"
       x2="1"
       y2="0"
       gradientUnits="userSpaceOnUse"
       gradientTransform="matrix(147.68,27.1038,27.1038,-147.68,672.373,2135.51)"
       spreadMethod="pad"
       id="linearGradient554"><stop
         style="stop-opacity:1;stop-color:#ffffff"
         offset="0"
         id="stop550" /><stop
         style="stop-opacity:1;stop-color:#c9c8c7"
         offset="1"
         id="stop552" /></linearGradient><clipPath
       clipPathUnits="userSpaceOnUse"
       id="clipPath566"><path
         d="m 751.094,2618.68 c 26.738,-65.19 20.976,-144.12 -12.586,-175.96 -33.723,-32.23 -82.5,-5.02 -109.231,60.34 -26.648,65.6 -20.976,144.29 12.676,176.34 33.567,32.03 82.363,4.86 109.141,-60.72 z"
         id="path564" /></clipPath><linearGradient
       x1="0"
       y1="0"
       x2="1"
       y2="0"
       gradientUnits="userSpaceOnUse"
       gradientTransform="matrix(147.661,27.1002,27.1002,-147.661,616.367,2547.46)"
       spreadMethod="pad"
       id="linearGradient572"><stop
         style="stop-opacity:1;stop-color:#ffffff"
         offset="0"
         id="stop568" /><stop
         style="stop-opacity:1;stop-color:#c9c8c7"
         offset="1"
         id="stop570" /></linearGradient><clipPath
       clipPathUnits="userSpaceOnUse"
       id="clipPath584"><path
         d="m 1003.15,2167.35 c 26.6,-65.33 21.2,-144.3 -12.603,-176.26 -33.527,-31.9 -82.317,-4.69 -109.055,60.72 -26.648,65.36 -21.031,144.07 12.485,176.09 33.75,31.91 82.546,4.75 109.173,-60.55 z"
         id="path582" /></clipPath><linearGradient
       x1="0"
       y1="0"
       x2="1"
       y2="0"
       gradientUnits="userSpaceOnUse"
       gradientTransform="matrix(147.478,27.0667,27.0667,-147.478,868.599,2095.97)"
       spreadMethod="pad"
       id="linearGradient590"><stop
         style="stop-opacity:1;stop-color:#ffffff"
         offset="0"
         id="stop586" /><stop
         style="stop-opacity:1;stop-color:#c9c8c7"
         offset="1"
         id="stop588" /></linearGradient><clipPath
       clipPathUnits="userSpaceOnUse"
       id="clipPath602"><path
         d="m 926.758,2608.16 c 26.66,-65.4 20.871,-144.08 -12.598,-176.13 -33.672,-31.86 -82.5,-4.85 -109.258,60.62 -26.601,65.43 -20.964,144.33 12.649,176.07 33.633,31.97 82.508,5.11 109.207,-60.56 z"
         id="path600" /></clipPath><linearGradient
       x1="0"
       y1="0"
       x2="1"
       y2="0"
       gradientUnits="userSpaceOnUse"
       gradientTransform="matrix(147.617,27.0923,27.0923,-147.617,792.031,2536.86)"
       spreadMethod="pad"
       id="linearGradient608"><stop
         style="stop-opacity:1;stop-color:#ffffff"
         offset="0"
         id="stop604" /><stop
         style="stop-opacity:1;stop-color:#c9c8c7"
         offset="1"
         id="stop606" /></linearGradient><clipPath
       clipPathUnits="userSpaceOnUse"
       id="clipPath620"><path
         d="m 1392.42,2604.07 c 8.93,-73.17 -31.42,-142.64 -89.68,-155.14 -58.77,-12.19 -113.36,37.04 -122.27,110.29 -8.89,73.4 31.34,142.73 89.85,155.01 58.48,12.42 113.14,-36.92 122.1,-110.16 z"
         id="path618" /></clipPath><linearGradient
       x1="0"
       y1="0"
       x2="1"
       y2="0"
       gradientUnits="userSpaceOnUse"
       gradientTransform="matrix(213.605,39.2031,39.2031,-213.605,1179.65,2561.97)"
       spreadMethod="pad"
       id="linearGradient626"><stop
         style="stop-opacity:1;stop-color:#ffffff"
         offset="0"
         id="stop622" /><stop
         style="stop-opacity:1;stop-color:#c9c8c7"
         offset="1"
         id="stop624" /></linearGradient><clipPath
       clipPathUnits="userSpaceOnUse"
       id="clipPath638"><path
         d="m 1712.38,2453.03 c 8.85,-73.29 -31.26,-142.66 -89.81,-155.21 -58.62,-12.09 -113.27,37.18 -122.2,110.4 -8.91,73.32 31.39,142.74 89.86,154.98 58.63,12.15 113.3,-37.12 122.15,-110.17 z"
         id="path636" /></clipPath><linearGradient
       x1="0"
       y1="0"
       x2="1"
       y2="0"
       gradientUnits="userSpaceOnUse"
       gradientTransform="matrix(213.658,39.2128,39.2128,-213.658,1499.58,2410.91)"
       spreadMethod="pad"
       id="linearGradient644"><stop
         style="stop-opacity:1;stop-color:#ffffff"
         offset="0"
         id="stop640" /><stop
         style="stop-opacity:1;stop-color:#c9c8c7"
         offset="1"
         id="stop642" /></linearGradient><clipPath
       clipPathUnits="userSpaceOnUse"
       id="clipPath656"><path
         d="m 1943.71,2739.76 c 8.97,-73.34 -31.22,-142.78 -89.8,-155.06 -58.57,-12.18 -113.16,37.04 -122.03,110.19 -8.84,73.32 31.47,142.42 89.85,155.09 58.48,12.3 113.24,-37.01 121.98,-110.22 z"
         id="path654" /></clipPath><linearGradient
       x1="0"
       y1="0"
       x2="1"
       y2="0"
       gradientUnits="userSpaceOnUse"
       gradientTransform="matrix(213.514,39.1863,39.1863,-213.514,1731.05,2697.74)"
       spreadMethod="pad"
       id="linearGradient662"><stop
         style="stop-opacity:1;stop-color:#ffffff"
         offset="0"
         id="stop658" /><stop
         style="stop-opacity:1;stop-color:#c9c8c7"
         offset="1"
         id="stop660" /></linearGradient><clipPath
       clipPathUnits="userSpaceOnUse"
       id="clipPath674"><path
         d="m 1471.91,2162.52 c 8.91,-73.45 -31.31,-142.73 -89.82,-154.95 -58.55,-12.42 -113.31,36.97 -122.06,110.01 -9.02,73.39 31.33,142.73 89.79,155.09 58.4,12.22 113.12,-37.04 122.09,-110.15 z"
         id="path672" /></clipPath><linearGradient
       x1="0"
       y1="0"
       x2="1"
       y2="0"
       gradientUnits="userSpaceOnUse"
       gradientTransform="matrix(213.562,39.1951,39.1951,-213.562,1259.17,2120.53)"
       spreadMethod="pad"
       id="linearGradient680"><stop
         style="stop-opacity:1;stop-color:#ffffff"
         offset="0"
         id="stop676" /><stop
         style="stop-opacity:1;stop-color:#c9c8c7"
         offset="1"
         id="stop678" /></linearGradient><clipPath
       clipPathUnits="userSpaceOnUse"
       id="clipPath692"><path
         d="m 2007.91,2276 c 8.86,-73.32 -31.26,-142.83 -89.8,-155.08 -58.6,-12.44 -113.19,36.93 -122.06,109.99 -8.86,72.98 31.32,142.57 89.81,155.06 58.53,12.3 113.19,-36.99 122.05,-109.97 z"
         id="path690" /></clipPath><linearGradient
       x1="0"
       y1="0"
       x2="1"
       y2="0"
       gradientUnits="userSpaceOnUse"
       gradientTransform="matrix(213.562,39.1951,39.1951,-213.562,1795.21,2233.84)"
       spreadMethod="pad"
       id="linearGradient698"><stop
         style="stop-opacity:1;stop-color:#ffffff"
         offset="0"
         id="stop694" /><stop
         style="stop-opacity:1;stop-color:#c9c8c7"
         offset="1"
         id="stop696" /></linearGradient><clipPath
       clipPathUnits="userSpaceOnUse"
       id="clipPath734"><path
         d="m 2841.38,1693.6 c -51.39,30.59 -95.37,82.64 -97.86,116.27 -2.58,33.75 37.1,36.29 88.67,5.69 51.56,-30.59 95.44,-82.7 97.88,-116.45 2.56,-33.63 -37.21,-35.86 -88.69,-5.51 z"
         id="path732" /></clipPath><linearGradient
       x1="0"
       y1="0"
       x2="1"
       y2="0"
       gradientUnits="userSpaceOnUse"
       gradientTransform="matrix(-64.8783,-69.3769,-138.038,129.095,2869.26,1789.27)"
       spreadMethod="pad"
       id="linearGradient740"><stop
         style="stop-opacity:1;stop-color:#ffffff"
         offset="0"
         id="stop736" /><stop
         style="stop-opacity:1;stop-color:#c9c8c7"
         offset="1"
         id="stop738" /></linearGradient><clipPath
       clipPathUnits="userSpaceOnUse"
       id="clipPath752"><path
         d="m 3125.59,1490.34 c -51.31,30.39 -95.33,82.58 -97.88,116.29 -2.55,33.61 37.37,36.11 88.81,5.55 51.51,-30.47 95.39,-82.68 97.98,-116.23 2.49,-33.72 -37.3,-36.18 -88.91,-5.61 z"
         id="path750" /></clipPath><linearGradient
       x1="0"
       y1="0"
       x2="1"
       y2="0"
       gradientUnits="userSpaceOnUse"
       gradientTransform="matrix(-64.9285,-69.4306,-138.145,129.195,3153.55,1585.96)"
       spreadMethod="pad"
       id="linearGradient758"><stop
         style="stop-opacity:1;stop-color:#ffffff"
         offset="0"
         id="stop754" /><stop
         style="stop-opacity:1;stop-color:#c9c8c7"
         offset="1"
         id="stop756" /></linearGradient><clipPath
       clipPathUnits="userSpaceOnUse"
       id="clipPath770"><path
         d="m 3423.47,1275.95 c -51.6,30.66 -95.33,82.57 -97.94,116.3 -2.68,33.68 37.23,36.2 88.68,5.51 51.59,-30.6 95.52,-82.61 98,-116.23 2.53,-33.57 -37.16,-36.31 -88.74,-5.58 z"
         id="path768" /></clipPath><linearGradient
       x1="0"
       y1="0"
       x2="1"
       y2="0"
       gradientUnits="userSpaceOnUse"
       gradientTransform="matrix(-64.8347,-69.3303,-137.945,129.009,3451.25,1371.55)"
       spreadMethod="pad"
       id="linearGradient776"><stop
         style="stop-opacity:1;stop-color:#ffffff"
         offset="0"
         id="stop772" /><stop
         style="stop-opacity:1;stop-color:#c9c8c7"
         offset="1"
         id="stop774" /></linearGradient><clipPath
       clipPathUnits="userSpaceOnUse"
       id="clipPath788"><path
         d="m 2520.39,1602.35 c -29.4,-75 -95.62,-135.49 -148.32,-135.27 -52.16,0.35 -70.7,61.03 -41.29,135.66 29.43,74.98 95.72,135.57 148.25,134.98 52.37,-0.09 70.95,-60.78 41.36,-135.37 z"
         id="path786" /></clipPath><linearGradient
       x1="0"
       y1="0"
       x2="1"
       y2="0"
       gradientUnits="userSpaceOnUse"
       gradientTransform="matrix(133.828,-107.136,-153.887,-194.578,2358.65,1656.07)"
       spreadMethod="pad"
       id="linearGradient794"><stop
         style="stop-opacity:1;stop-color:#ffffff"
         offset="0"
         id="stop790" /><stop
         style="stop-opacity:1;stop-color:#c9c8c7"
         offset="1"
         id="stop792" /></linearGradient><clipPath
       clipPathUnits="userSpaceOnUse"
       id="clipPath806"><path
         d="m 2297.55,1120.97 c -29.62,-74.77 -95.95,-135.318 -148.49,-135.099 -52.33,0.328 -70.97,61.049 -41.28,135.719 29.18,75.04 95.8,135.29 148.15,134.94 52.28,0 71,-60.74 41.62,-135.56 z"
         id="path804" /></clipPath><linearGradient
       x1="0"
       y1="0"
       x2="1"
       y2="0"
       gradientUnits="userSpaceOnUse"
       gradientTransform="matrix(133.907,-107.199,-153.977,-194.692,2135.55,1174.88)"
       spreadMethod="pad"
       id="linearGradient812"><stop
         style="stop-opacity:1;stop-color:#ffffff"
         offset="0"
         id="stop808" /><stop
         style="stop-opacity:1;stop-color:#c9c8c7"
         offset="1"
         id="stop810" /></linearGradient><clipPath
       clipPathUnits="userSpaceOnUse"
       id="clipPath824"><path
         d="m 3182.72,991.449 c -45.26,-59.547 -123.52,-81.597 -174.68,-49.308 -51.25,32.129 -56.34,106.699 -11.14,166.189 45.17,59.49 123.43,81.74 174.7,49.47 51.39,-32.28 56.37,-106.62 11.12,-166.351 z"
         id="path822" /></clipPath><linearGradient
       x1="0"
       y1="0"
       x2="1"
       y2="0"
       gradientUnits="userSpaceOnUse"
       gradientTransform="matrix(107.805,-193.024,-193.024,-107.805,3035.96,1146.45)"
       spreadMethod="pad"
       id="linearGradient830"><stop
         style="stop-opacity:1;stop-color:#ffffff"
         offset="0"
         id="stop826" /><stop
         style="stop-opacity:1;stop-color:#c9c8c7"
         offset="1"
         id="stop828" /></linearGradient><clipPath
       clipPathUnits="userSpaceOnUse"
       id="clipPath842"><path
         d="m 2919.61,1134.64 c -45.2,-59.53 -123.35,-81.66 -174.74,-49.44 -51.15,32.25 -56.2,106.61 -11,166.31 45.08,59.61 123.42,81.62 174.72,49.53 51.12,-32.32 56.29,-106.83 11.02,-166.4 z"
         id="path840" /></clipPath><linearGradient
       x1="0"
       y1="0"
       x2="1"
       y2="0"
       gradientUnits="userSpaceOnUse"
       gradientTransform="matrix(107.824,-193.058,-193.058,-107.824,2772.81,1289.63)"
       spreadMethod="pad"
       id="linearGradient848"><stop
         style="stop-opacity:1;stop-color:#ffffff"
         offset="0"
         id="stop844" /><stop
         style="stop-opacity:1;stop-color:#c9c8c7"
         offset="1"
         id="stop846" /></linearGradient><clipPath
       clipPathUnits="userSpaceOnUse"
       id="clipPath860"><path
         d="m 3416.73,844.32 c -45.27,-59.429 -123.35,-81.668 -174.74,-49.371 -51.28,32.25 -56.2,106.582 -11.1,166.5 45.16,59.501 123.37,81.551 174.76,49.261 51.28,-32.397 56.22,-106.737 11.08,-166.39 z"
         id="path858" /></clipPath><linearGradient
       x1="0"
       y1="0"
       x2="1"
       y2="0"
       gradientUnits="userSpaceOnUse"
       gradientTransform="matrix(107.893,-193.182,-193.182,-107.893,3269.82,999.47)"
       spreadMethod="pad"
       id="linearGradient866"><stop
         style="stop-opacity:1;stop-color:#ffffff"
         offset="0"
         id="stop862" /><stop
         style="stop-opacity:1;stop-color:#c9c8c7"
         offset="1"
         id="stop864" /></linearGradient><clipPath
       clipPathUnits="userSpaceOnUse"
       id="clipPath878"><path
         d="m 2666,757.063 c -45.16,-59.493 -123.54,-81.622 -174.81,-49.282 -51.26,32.09 -56.26,106.469 -11.13,166.211 45.14,59.668 123.49,81.488 174.92,49.477 51.27,-32.367 56.1,-106.797 11.02,-166.406 z"
         id="path876" /></clipPath><linearGradient
       x1="0"
       y1="0"
       x2="1"
       y2="0"
       gradientUnits="userSpaceOnUse"
       gradientTransform="matrix(107.865,-193.131,-193.131,-107.865,2519.12,912.14)"
       spreadMethod="pad"
       id="linearGradient884"><stop
         style="stop-opacity:1;stop-color:#ffffff"
         offset="0"
         id="stop880" /><stop
         style="stop-opacity:1;stop-color:#c9c8c7"
         offset="1"
         id="stop882" /></linearGradient><clipPath
       clipPathUnits="userSpaceOnUse"
       id="clipPath896"><path
         d="m 2902.2,608.539 c -45.27,-59.566 -123.46,-81.789 -174.72,-49.527 -51.47,32.398 -56.32,106.957 -11.29,166.578 45.27,59.519 123.54,81.59 174.9,49.129 51.26,-32.27 56.2,-106.629 11.11,-166.18 z"
         id="path894" /></clipPath><linearGradient
       x1="0"
       y1="0"
       x2="1"
       y2="0"
       gradientUnits="userSpaceOnUse"
       gradientTransform="matrix(107.92,-193.229,-193.229,-107.92,2755.21,763.631)"
       spreadMethod="pad"
       id="linearGradient902"><stop
         style="stop-opacity:1;stop-color:#ffffff"
         offset="0"
         id="stop898" /><stop
         style="stop-opacity:1;stop-color:#c9c8c7"
         offset="1"
         id="stop900" /></linearGradient><clipPath
       clipPathUnits="userSpaceOnUse"
       id="clipPath914"><path
         d="m 3136.16,461.34 c -45.26,-59.461 -123.43,-81.61 -174.81,-49.277 -51.25,32.187 -56.25,106.519 -11.13,166.207 45.2,59.632 123.53,81.761 174.67,49.609 51.27,-32.34 56.48,-106.899 11.27,-166.539 z"
         id="path912" /></clipPath><linearGradient
       x1="0"
       y1="0"
       x2="1"
       y2="0"
       gradientUnits="userSpaceOnUse"
       gradientTransform="matrix(107.865,-193.131,-193.131,-107.865,2989.24,616.421)"
       spreadMethod="pad"
       id="linearGradient920"><stop
         style="stop-opacity:1;stop-color:#ffffff"
         offset="0"
         id="stop916" /><stop
         style="stop-opacity:1;stop-color:#c9c8c7"
         offset="1"
         id="stop918" /></linearGradient></defs><g
     id="g8"
     transform="matrix(1.3333333,0,0,-1.3333333,-27.317542,937.49256)"><g
       id="g4071"
       transform="translate(310.9376,261.54084)"><g
         id="g4029"
         transform="translate(-193.41225,45.074785)"><rect
           style="fill:#f5fbce;fill-opacity:1;stroke:#000000;stroke-width:1.5;stroke-linecap:round;stroke-miterlimit:4;stroke-dasharray:none;stroke-opacity:1;paint-order:markers fill stroke"
           id="rect4011"
           width="72.755135"
           height="72.755135"
           x="-96.287193"
           y="-395.75381"
           transform="scale(1,-1)"
           ry="7.8030229" /><g
           id="g4027"
           transform="matrix(0.93089509,0,0,0.93089509,120.30431,157.91765)"><circle
             style="fill:#000000;fill-opacity:1;stroke:none;stroke-width:1.5;stroke-linecap:round;stroke-miterlimit:4;stroke-dasharray:none;stroke-opacity:1;paint-order:markers fill stroke"
             id="circle4013"
             cx="-215.92894"
             cy="-238.75072"
             r="7.0924129"
             transform="scale(1,-1)" /><circle
             style="fill:#000000;fill-opacity:1;stroke:none;stroke-width:1.5;stroke-linecap:round;stroke-miterlimit:4;stroke-dasharray:none;stroke-opacity:1;paint-order:markers fill stroke"
             id="circle4015"
             cx="-171.25523"
             cy="-238.75072"
             r="7.0924129"
             transform="scale(1,-1)" /><circle
             style="fill:#000000;fill-opacity:1;stroke:none;stroke-width:1.5;stroke-linecap:round;stroke-miterlimit:4;stroke-dasharray:none;stroke-opacity:1;paint-order:markers fill stroke"
             id="circle4019"
             cx="-215.92894"
             cy="-194.07701"
             r="7.0924129"
             transform="scale(1,-1)" /><circle
             style="fill:#000000;fill-opacity:1;stroke:none;stroke-width:1.5;stroke-linecap:round;stroke-miterlimit:4;stroke-dasharray:none;stroke-opacity:1;paint-order:markers fill stroke"
             id="circle4021"
             cx="-171.25523"
             cy="-194.07701"
             r="7.0924129"
             transform="scale(1,-1)" /><circle
             style="fill:#000000;fill-opacity:1;stroke:none;stroke-width:1.5;stroke-linecap:round;stroke-miterlimit:4;stroke-dasharray:none;stroke-opacity:1;paint-order:markers fill stroke"
             id="circle4023"
             cx="-171.25525"
             cy="-216.41388"
             r="7.0924129"
             transform="scale(1,-1)" /><circle
             style="fill:#000000;fill-opacity:1;stroke:none;stroke-width:1.5;stroke-linecap:round;stroke-miterlimit:4;stroke-dasharray:none;stroke-opacity:1;paint-order:markers fill stroke"
             id="circle4025"
             cx="-215.92896"
             cy="-216.41388"
             r="7.0924129"
             transform="scale(1,-1)" /></g></g><g
         id="g4049"
         transform="translate(-23.64369,45.074785)"><rect
           style="fill:#f5fbce;fill-opacity:1;stroke:#000000;stroke-width:1.5;stroke-linecap:round;stroke-miterlimit:4;stroke-dasharray:none;stroke-opacity:1;paint-order:markers fill stroke"
           id="rect4031"
           width="72.755135"
           height="72.755135"
           x="-96.287193"
           y="-395.75381"
           transform="scale(1,-1)"
           ry="7.8030229" /><g
           id="g4047"
           transform="matrix(0.93089509,0,0,0.93089509,120.30431,157.91765)"><circle
             style="fill:#000000;fill-opacity:1;stroke:none;stroke-width:1.5;stroke-linecap:round;stroke-miterlimit:4;stroke-dasharray:none;stroke-opacity:1;paint-order:markers fill stroke"
             id="circle4033"
             cx="-215.92894"
             cy="-238.75072"
             r="7.0924129"
             transform="scale(1,-1)" /><circle
             style="fill:#000000;fill-opacity:1;stroke:none;stroke-width:1.5;stroke-linecap:round;stroke-miterlimit:4;stroke-dasharray:none;stroke-opacity:1;paint-order:markers fill stroke"
             id="circle4035"
             cx="-171.25523"
             cy="-238.75072"
             r="7.0924129"
             transform="scale(1,-1)" /><circle
             style="fill:#000000;fill-opacity:1;stroke:none;stroke-width:1.5;stroke-linecap:round;stroke-miterlimit:4;stroke-dasharray:none;stroke-opacity:1;paint-order:markers fill stroke"
             id="circle4039"
             cx="-215.92894"
             cy="-194.07701"
             r="7.0924129"
             transform="scale(1,-1)" /><circle
             style="fill:#000000;fill-opacity:1;stroke:none;stroke-width:1.5;stroke-linecap:round;stroke-miterlimit:4;stroke-dasharray:none;stroke-opacity:1;paint-order:markers fill stroke"
             id="circle4041"
             cx="-171.25523"
             cy="-194.07701"
             r="7.0924129"
             transform="scale(1,-1)" /><circle
             style="fill:#000000;fill-opacity:1;stroke:none;stroke-width:1.5;stroke-linecap:round;stroke-miterlimit:4;stroke-dasharray:none;stroke-opacity:1;paint-order:markers fill stroke"
             id="circle4043"
             cx="-171.25525"
             cy="-216.41388"
             r="7.0924129"
             transform="scale(1,-1)" /><circle
             style="fill:#000000;fill-opacity:1;stroke:none;stroke-width:1.5;stroke-linecap:round;stroke-miterlimit:4;stroke-dasharray:none;stroke-opacity:1;paint-order:markers fill stroke"
             id="circle4045"
             cx="-215.92896"
             cy="-216.41388"
             r="7.0924129"
             transform="scale(1,-1)" /></g></g><g
         id="g4069"
         transform="translate(-108.52797,45.074785)"><rect
           style="fill:#f5fbce;fill-opacity:1;stroke:#000000;stroke-width:1.5;stroke-linecap:round;stroke-miterlimit:4;stroke-dasharray:none;stroke-opacity:1;paint-order:markers fill stroke"
           id="rect4051"
           width="72.755135"
           height="72.755135"
           x="-96.287193"
           y="-395.75381"
           transform="scale(1,-1)"
           ry="7.8030229" /><g
           id="g4067"
           transform="matrix(0.93089509,0,0,0.93089509,120.30431,157.91765)"><circle
             style="fill:#000000;fill-opacity:1;stroke:none;stroke-width:1.5;stroke-linecap:round;stroke-miterlimit:4;stroke-dasharray:none;stroke-opacity:1;paint-order:markers fill stroke"
             id="circle4053"
             cx="-215.92894"
             cy="-238.75072"
             r="7.0924129"
             transform="scale(1,-1)" /><circle
             style="fill:#000000;fill-opacity:1;stroke:none;stroke-width:1.5;stroke-linecap:round;stroke-miterlimit:4;stroke-dasharray:none;stroke-opacity:1;paint-order:markers fill stroke"
             id="circle4055"
             cx="-171.25523"
             cy="-238.75072"
             r="7.0924129"
             transform="scale(1,-1)" /><circle
             style="fill:#000000;fill-opacity:1;stroke:none;stroke-width:1.5;stroke-linecap:round;stroke-miterlimit:4;stroke-dasharray:none;stroke-opacity:1;paint-order:markers fill stroke"
             id="circle4059"
             cx="-215.92894"
             cy="-194.07701"
             r="7.0924129"
             transform="scale(1,-1)" /><circle
             style="fill:#000000;fill-opacity:1;stroke:none;stroke-width:1.5;stroke-linecap:round;stroke-miterlimit:4;stroke-dasharray:none;stroke-opacity:1;paint-order:markers fill stroke"
             id="circle4061"
             cx="-171.25523"
             cy="-194.07701"
             r="7.0924129"
             transform="scale(1,-1)" /><circle
             style="fill:#000000;fill-opacity:1;stroke:none;stroke-width:1.5;stroke-linecap:round;stroke-miterlimit:4;stroke-dasharray:none;stroke-opacity:1;paint-order:markers fill stroke"
             id="circle4063"
             cx="-171.25525"
             cy="-216.41388"
             r="7.0924129"
             transform="scale(1,-1)" /><circle
             style="fill:#000000;fill-opacity:1;stroke:none;stroke-width:1.5;stroke-linecap:round;stroke-miterlimit:4;stroke-dasharray:none;stroke-opacity:1;paint-order:markers fill stroke"
             id="circle4065"
             cx="-215.92896"
             cy="-216.41388"
             r="7.0924129"
             transform="scale(1,-1)" /></g></g></g></g></svg>
